[gd_scene load_steps=2 format=3 uid="uid://bieiliwquiqp4"]

[ext_resource type="PackedScene" uid="uid://bp16410ow0dlk" path="res://hero/avocado/blender/nut.gltf" id="1_ajpsb"]

[node name="Nut" instance=ExtResource("1_ajpsb")]
